Get a set of simulation results from the national demographic model — getSimsNational • caribouMetrics
…
    Examples

getSimsNational()
#> Using saved object
#> $summary
#> # A tibble: 505 × 5
#>    Anthro  Mean lower upper Parameter            
#>     <dbl> <dbl> <dbl> <dbl> <chr>                
#>  1      0 0.879 0.689 0.999 Adult female survival
#>  2      1 0.872 0.684 0.997 Adult female survival
#>  3      2 0.881 0.706 0.997 Adult female survival
#>  4      3 0.870 0.675 0.998 Adult female survival
#>  5      4 0.876 0.692 0.998 Adult female survival
#>  6      5 0.878 0.699 0.998 Adult female survival
#>  7      6 0.874 0.694 0.997 Adult female survival
#>  8      7 0.872 0.681 0.996 Adult female survival
#>  9      8 0.869 0.690 0.995 Adult female survival
#> 10      9 0.872 0.695 0.997 Adult female survival
#> # ℹ 495 more rows
#> 
#> $samples
#> # A tibble: 505,000 × 3
#>    Anthro Parameter                  Value
#>     <dbl> <chr>                      <dbl>
#>  1      0 Adult female survival     0.801 
#>  2      0 Recruitment               0.220 
#>  3      0 Adjusted recruitment      0.102 
#>  4      0 Population growth rate    0.970 
#>  5      0 Female population size  581     
#>  6      1 Adult female survival     0.999 
#>  7      1 Recruitment               0.182 
#>  8      1 Adjusted recruitment      0.0841
#>  9      1 Population growth rate    1.09  
#> 10      1 Female population size 1528     
#> # ℹ 504,990 more rows
…
